{
  "flightId":1896,
  "categories": [
    10,
    20,
    22
  ],
  "source_provider": [
    10,
    50
  ],
  "timezone": "Asia/Ho_Chi_Minh",
  "date_range": [
    {
      "from": "2018/01/20",
      "to": "2018/02/20"
    },
    {
      "from": "2018/02/23",
      "to": "2018/02/28"
    },
    {
      "from": "2018/03/10",
      "to": "2018/03/31"
    }
  ],
  "hour": [
    8,
    9,
    10,
    11,
    12,
    13,
    18
  ],
  "day_week": [
    1,
    3,
    4,
    5,
    6
  ],
  "location": [
    "Bac",
    "Nam",
    "HN",
    "SG"
  ],
  "frequency": [
    10,
    12
  ],
  "weight": 10,
  "total_booking": 100000,
  "daily_booking": 200,
  "buy_type": "cpm",
  "third_trackings": [
    {
      "metric_name": "impression",
      "tracking_url": "http://adclick.vn/tracking?impression"
    },
    {
      "metric_name": "click",
      "tracking_url": "http://adclick.vn/tracking?click"
    },
    {
      "metric_name": "completeView",
      "tracking_url": "http://adclick.vn/tracking?complete"
    }
  ],
  "booking_type": "impression",
  "creatives": [
    13,
    20,
    55
  ]
}