{
    writeKafkaLogEnable : 1,

    numberBatchJob : 2,
    sendKafkaThreadPerBatchJob : 4,
    kafkaProducerAsyncEnabled : 0,
    kafkaProducerAckEnabled : 1,
    timeSendKafkaPerBatchJob : 5000,
    sendKafkaMaxRetries : 2,
    defaultPartitioner: "server.kafka.SimplePartitioner",
    kafkaProducerList : {
            _ad_impression : {
                kafkaTopic : "ad-impression",
                brokerList : "118.69.190.42:9421,118.69.190.42:9422"
            },
            _ad_click : {
                kafkaTopic : "ad-click",
                brokerList : "118.69.190.42:9421,118.69.190.42:9422"
            },
            _ad_tracking : {
                kafkaTopic : "ad-tracking",
                brokerList : "118.69.190.42:9421,118.69.190.42:9422"
            },
             _playview : {
                kafkaTopic : "playview",
                brokerList : "118.69.190.42:9421,118.69.190.42:9422"
            }
    }
}