{
  "crtId": 1976,
  "source": "http://cdn.adsplay.net/2018/01/video.mp4",
  "landing_page": "https://www.vinamilk.com.vn",
  "skip_time": "00:00:05",
  "duration": "00:00:30",
  "start_time": {
    "type": "mid_roll",
    "value": "00:00:10"
  }
}